SpyGlass/runs/spyglass-1/lint/lint_functional_rtl/spyglass_reports/auto-verify/VCD/auto_verify_init_seq.vcd
$date
	Sun Aug 24 19:53:36 2025

$end
$version
	BMC-0.1
$end
$timescale
	1ps
$end

$var integer 16 verification_cycle verification_cycle $end
$scope module SYSTEM_TOP $end

$var wire 1 & RX_IN $end
$var wire 1 ' RST $end
$var wire 1 ( UART_CLK $end
$var wire 1 ) REF_CLK $end
$upscope $end

$enddefinitions $end

#0
b0000000000000000 verification_cycle

0'
1(
1)

#5000
b0000000000000001 verification_cycle

0)

#10000
b0000000000000010 verification_cycle

1)

#15000
b0000000000000011 verification_cycle

0)

#20000
b0000000000000100 verification_cycle

1)

#25000
b0000000000000101 verification_cycle

0)

#30000
b0000000000000110 verification_cycle

1)

#35000
b0000000000000111 verification_cycle

0)

#40000
b0000000000001000 verification_cycle

1)

#45000
b0000000000001001 verification_cycle

0)

#50000
b0000000000001010 verification_cycle

1)

#55000
b0000000000001011 verification_cycle

0)

